-1.00000000000000000e+01 3.13790806129247146e-01
-9.00000000000000000e+00 3.28993821712268320e-01
-8.00000000000000000e+00 3.02905944986690323e-01
-7.00000000000000000e+00 2.62767987428443150e-01
-6.00000000000000000e+00 3.04472667034787425e-01
-5.00000000000000000e+00 3.04246848042468487e-01
-4.00000000000000000e+00 2.33758094840192193e-01
-3.00000000000000000e+00 1.44745122718691003e-02
-2.00000000000000000e+00 4.73385230380812122e-03
-1.00000000000000000e+00 7.49894381073088270e-03
0.00000000000000000e+00 4.85795754567536209e-03
1.00000000000000000e+00 6.26697305201587632e-03
2.00000000000000000e+00 6.08221476510067104e-03
3.00000000000000000e+00 5.97296447657969225e-03
4.00000000000000000e+00 4.33816527351602987e-03
5.00000000000000000e+00 7.62561370521257741e-03
6.00000000000000000e+00 5.67226890756302501e-03
7.00000000000000000e+00 6.09435746558789539e-03
8.00000000000000000e+00 9.09860347016504430e-03
9.00000000000000000e+00 6.61625708884688076e-03
-8.00000000000000000e+00 3.11922569291684992e-01
-7.90000000000000036e+00 2.96485197915511700e-01
-7.80000000000000071e+00 2.90244705365960698e-01
-7.70000000000000107e+00 3.14012880302020903e-01
-7.60000000000000142e+00 3.16685082872928181e-01
-7.50000000000000178e+00 3.10126582278481000e-01
-7.40000000000000213e+00 3.15332160140783080e-01
-7.30000000000000249e+00 3.01711600850206985e-01
-7.20000000000000284e+00 3.22075324963892906e-01
-7.10000000000000320e+00 3.01660618057846719e-01
-7.00000000000000355e+00 2.87663634346571995e-01
-6.90000000000000391e+00 3.11000552791597551e-01
-6.80000000000000426e+00 3.13699681912909922e-01
-6.70000000000000462e+00 3.09671694764862449e-01
-6.60000000000000497e+00 3.04083885209713023e-01
-6.50000000000000533e+00 2.96015180265654654e-01
-6.40000000000000568e+00 2.88195596858059511e-01
-6.30000000000000604e+00 3.18929126860697632e-01
-6.20000000000000639e+00 2.91239411502452084e-01
-6.10000000000000675e+00 3.02130477977701706e-01
-6.00000000000000711e+00 3.15342163355408378e-01
-5.90000000000000746e+00 3.08238951809904516e-01
-5.80000000000000782e+00 2.95087445694552752e-01
-5.70000000000000817e+00 3.12293820101165631e-01
-5.60000000000000853e+00 3.27588124096519495e-01
-5.50000000000000888e+00 3.22925958965209647e-01
-5.40000000000000924e+00 3.20187165775401072e-01
-5.30000000000000959e+00 3.12437810945273620e-01
-5.20000000000000995e+00 3.17722783264898445e-01
-5.10000000000001030e+00 3.19959654824610584e-01
-5.00000000000001066e+00 3.17161716171617147e-01
-4.90000000000001101e+00 3.08907415533128560e-01
-4.80000000000001137e+00 3.13081009296148738e-01
-4.70000000000001172e+00 3.08615897720956101e-01
-4.60000000000001208e+00 3.06157662029548139e-01
-4.50000000000001243e+00 2.92099224128510526e-01
-4.40000000000001279e+00 3.02484062431303602e-01
-4.30000000000001315e+00 2.70240937703494666e-01
-4.20000000000001350e+00 2.73751489546094684e-01
-4.10000000000001386e+00 2.61406333870101981e-01
-4.00000000000001421e+00 2.66546648310918122e-01
-3.90000000000001412e+00 1.97013028280902447e-01
-3.80000000000001403e+00 1.84923683937285838e-01
-3.70000000000001394e+00 1.69603297269448727e-01
-3.60000000000001386e+00 1.59507944643772437e-01
-3.50000000000001377e+00 1.49778829338545416e-01
-3.40000000000001368e+00 1.48272699480281267e-01
-3.30000000000001359e+00 1.35493827160493824e-01
-3.20000000000001350e+00 1.02474226804123714e-01
-3.10000000000001341e+00 1.98030067392431300e-02
-3.00000000000001332e+00 8.55784469096671982e-03
-2.90000000000001323e+00 7.99074755546209589e-03
-2.80000000000001315e+00 8.60350435421256866e-03
-2.70000000000001306e+00 1.26015413455530106e-02
-2.60000000000001297e+00 5.71307659754549321e-03
-2.50000000000001288e+00 7.07081210356660071e-03
-2.40000000000001279e+00 6.10012620950778264e-03
-2.30000000000001270e+00 6.44691691795778316e-03
-2.20000000000001261e+00 5.86264656616415376e-03
-2.10000000000001252e+00 4.60443700293009656e-03
-2.00000000000001243e+00 8.24376500052175810e-03
-1.90000000000001235e+00 6.91099476439790538e-03
-1.80000000000001226e+00 6.37475180269620693e-03
-1.70000000000001217e+00 5.02933780385582570e-03
-1.60000000000001208e+00 7.51095347381598201e-03
-1.50000000000001199e+00 5.13304001676094697e-03
-1.40000000000001190e+00 4.63743676222596983e-03
-1.30000000000001181e+00 7.58756885978588511e-03
-1.20000000000001172e+00 8.68019242836226730e-03
-1.10000000000001164e+00 6.90015682174594837e-03
-1.00000000000001155e+00 5.58129738837405236e-03
-9.00000000000011569e-01 5.63204005006257783e-03
-8.00000000000011591e-01 7.78089013383131013e-03
-7.00000000000011613e-01 5.76459490619431886e-03
-6.00000000000011635e-01 9.06026127265065380e-03
-5.00000000000011657e-01 4.75787692958342182e-03
-4.00000000000011680e-01 7.25857353250578593e-03
-3.00000000000011702e-01 7.29090719716696169e-03
-2.00000000000011696e-01 7.55458967194453084e-03
-1.00000000000011691e-01 6.27615062761506266e-03
-1.16850973341797726e-14 9.31518067355921811e-03
