time,score,avgEnergyInc,T,realTemp,pbad,lower,higher,timer
0.0080000000,0.0002382938,-0.0000100000,0.0039810717,0.0039810717,-nan,0.0000002512,0.0039810717,0.0000000000
7.9320000000,0.0027821055,-0.0000100000,0.0011099924,0.0011099924,0.9942696021,0.0000002512,0.0039810717,475.4400000000
15.8880000000,0.0045671800,-0.0000100000,0.0003078931,0.0003078931,0.9769817358,0.0000002512,0.0039810717,952.8000000000
23.9360000000,0.0051053661,-0.0000100000,0.0000841473,0.0000841473,0.9054373306,0.0000002512,0.0039810717,1435.6800000000
32.1760000000,0.1078496042,-0.0000100000,0.0000222967,0.0000222967,0.3297312018,0.0000002512,0.0039810717,1930.0800000000
39.9880000000,0.2369836366,-0.0000100000,0.0000063299,0.0000063299,0.0218319605,0.0000002512,0.0039810717,2398.8000000000
47.8440000000,0.2588289428,-0.0000100000,0.0000017843,0.0000017843,0.0002418719,0.0000002512,0.0039810717,2870.1600000000
56.0440000000,0.2612343409,-0.0000100000,0.0000004759,0.0000004759,0.0000000007,0.0000002512,0.0039810717,3362.1600000000
64.8520000000,0.2627284220,-0.0000100000,0.0000001150,0.0000001150,0.0000000000,0.0000002512,0.0039810717,3890.8800000000
