time,score,avgEnergyInc,T,realTemp,pbad,lower,higher,timer
0.0240000000,0.0029063009,-0.0000100000,0.0039810717,0.0039810717,-nan,0.0000001259,0.0039810717,0.0000000000
8.6120000000,0.0035222895,-0.0000100000,0.0029592387,0.0029592387,0.9948184320,0.0000001259,0.0039810717,103.0560000000
17.1720000000,0.0039534373,-0.0000100000,0.0022018108,0.0022018108,0.9924907573,0.0000001259,0.0039810717,205.7760000000
25.7400000000,0.0039836229,-0.0000100000,0.0016377967,0.0016377967,0.9896860727,0.0000001259,0.0039810717,308.5920000000
34.2880000000,0.0024379433,-0.0000100000,0.0012192703,0.0012192703,0.9857712949,0.0000001259,0.0039810717,411.1200000000
42.8520000000,0.0045114437,-0.0000100000,0.0009069430,0.0009069430,0.9771001358,0.0000001259,0.0039810717,513.9360000000
51.4480000000,0.0029867257,-0.0000100000,0.0006739691,0.0006739691,0.9731274085,0.0000001259,0.0039810717,617.0880000000
60.0600000000,0.1405618217,-0.0000100000,0.0005006336,0.0005006336,0.7792885495,0.0000001259,0.0039810717,720.3840000000
68.7840000000,0.1649506199,-0.0000100000,0.0003703395,0.0003703395,0.7499315171,0.0000001259,0.0039810717,825.1200000000
77.3960000000,0.1846993389,-0.0000100000,0.0002750933,0.0002750933,0.6992190295,0.0000001259,0.0039810717,928.4160000000
86.0320000000,0.1929491239,-0.0000100000,0.0002041174,0.0002041174,0.6657404877,0.0000001259,0.0039810717,1032.0960000000
94.6320000000,0.2595691278,-0.0000100000,0.0001516841,0.0001516841,0.5013302979,0.0000001259,0.0039810717,1135.2480000000
103.2160000000,0.3488617201,-0.0000100000,0.0001127665,0.0001127665,0.3757673072,0.0000001259,0.0039810717,1238.2560000000
111.7960000000,0.4188061965,-0.0000100000,0.0000838340,0.0000838340,0.2308371181,0.0000001259,0.0039810717,1341.2640000000
120.3840000000,0.4811351528,-0.0000100000,0.0000623247,0.0000623247,0.1428866753,0.0000001259,0.0039810717,1444.2720000000
128.9840000000,0.5247210676,-0.0000100000,0.0000463020,0.0000463020,0.0913464208,0.0000001259,0.0039810717,1547.5200000000
137.6320000000,0.5618323973,-0.0000100000,0.0000343463,0.0000343463,0.0387607173,0.0000001259,0.0039810717,1651.2960000000
146.3040000000,0.5868217054,-0.0000100000,0.0000254566,0.0000254566,0.0189116823,0.0000001259,0.0039810717,1755.3600000000
155.0440000000,0.6056712450,-0.0000100000,0.0000188235,0.0000188235,0.0058685958,0.0000001259,0.0039810717,1860.2400000000
163.8080000000,0.6155550632,-0.0000100000,0.0000139091,0.0000139091,0.0012798040,0.0000001259,0.0039810717,1965.3600000000
172.6240000000,0.6242652767,-0.0000100000,0.0000102565,0.0000102565,0.0002238268,0.0000001259,0.0039810717,2071.2000000000
181.4720000000,0.6271900643,-0.0000100000,0.0000075558,0.0000075558,0.0000412668,0.0000001259,0.0039810717,2177.3760000000
190.4240000000,0.6287391979,-0.0000100000,0.0000055463,0.0000055463,0.0000012753,0.0000001259,0.0039810717,2284.8000000000
199.4120000000,0.6287803257,-0.0000100000,0.0000040661,0.0000040661,0.0000006172,0.0000001259,0.0039810717,2392.6560000000
208.6440000000,0.6290269014,-0.0000100000,0.0000029560,0.0000029560,0.0000001183,0.0000001259,0.0039810717,2503.4400000000
217.7920000000,0.6291662053,-0.0000100000,0.0000021552,0.0000021552,0.0000000035,0.0000001259,0.0039810717,2613.2160000000
227.2800000000,0.6293466224,-0.0000100000,0.0000015532,0.0000015532,0.0000000000,0.0000001259,0.0039810717,2727.0240000000
236.6840000000,0.6293714033,-0.0000100000,0.0000011223,0.0000011223,0.0000003332,0.0000001259,0.0039810717,2839.9200000000
246.1400000000,0.6294124156,-0.0000100000,0.0000008096,0.0000008096,0.0000000000,0.0000001259,0.0039810717,2953.3920000000
255.7920000000,0.6294534189,-0.0000100000,0.0000005801,0.0000005801,0.0000000000,0.0000001259,0.0039810717,3069.2160000000
265.4280000000,0.6295230718,-0.0000100000,0.0000004159,0.0000004159,0.0000000000,0.0000001259,0.0039810717,3184.8000000000
275.1720000000,0.6296747068,-0.0000100000,0.0000002970,0.0000002970,0.0000000000,0.0000001259,0.0039810717,3301.7760000000
285.2040000000,0.6296747068,-0.0000100000,0.0000002100,0.0000002100,0.0000000000,0.0000001259,0.0039810717,3422.1600000000
295.3600000000,0.6296747068,-0.0000100000,0.0000001479,0.0000001479,0.0000000000,0.0000001259,0.0039810717,3543.9840000000
305.3360000000,0.6296747068,-0.0000100000,0.0000001048,0.0000001048,0.0000000000,0.0000001259,0.0039810717,3663.7440000000
