time,score,avgEnergyInc,T,realTemp,pbad,lower,higher,timer
0.0080000000,0.1295805597,-0.0000100000,0.0251188643,0.0251188643,-nan,0.0000100000,0.0251188643,0.0000000000
7.7800000000,0.0200175080,-0.0000100000,0.0205077178,0.0205077178,0.9929073500,0.0000100000,0.0251188643,93.2640000000
15.5600000000,0.0293286219,-0.0000100000,0.0167413060,0.0167413060,0.9923894942,0.0000100000,0.0251188643,186.5760000000
23.3200000000,0.0269095182,-0.0000100000,0.0136709071,0.0136709071,0.9906538439,0.0000100000,0.0251188643,279.7440000000
31.0960000000,0.0206727400,-0.0000100000,0.0111601320,0.0111601320,0.9884831123,0.0000100000,0.0251188643,373.0560000000
38.8680000000,0.0222248216,-0.0000100000,0.0091114326,0.0091114326,0.9848673694,0.0000100000,0.0251188643,466.3200000000
46.6400000000,0.0300565771,-0.0000100000,0.0074388191,0.0074388191,0.9794962796,0.0000100000,0.0251188643,559.5840000000
54.4240000000,0.0351812367,-0.0000100000,0.0060713509,0.0060713509,0.9784154667,0.0000100000,0.0251188643,652.9920000000
62.1960000000,0.0260655160,-0.0000100000,0.0049568145,0.0049568145,0.9721499251,0.0000100000,0.0251188643,746.2560000000
69.9720000000,0.0236017570,-0.0000100000,0.0040464545,0.0040464545,0.9656229457,0.0000100000,0.0251188643,839.5680000000
77.7480000000,0.0323685765,-0.0000100000,0.0033032897,0.0033032897,0.9598104893,0.0000100000,0.0251188643,932.8800000000
85.5320000000,0.0228828934,-0.0000100000,0.0026960504,0.0026960504,0.9493603992,0.0000100000,0.0251188643,1026.2880000000
93.3120000000,0.0267888615,-0.0000100000,0.0022006687,0.0022006687,0.9346321677,0.0000100000,0.0251188643,1119.6480000000
101.0920000000,0.0258246273,-0.0000100000,0.0017963102,0.0017963102,0.9246737645,0.0000100000,0.0251188643,1213.0080000000
108.8880000000,0.0308463580,-0.0000100000,0.0014656378,0.0014656378,0.9013396280,0.0000100000,0.0251188643,1306.5600000000
116.6720000000,0.0399238413,-0.0000100000,0.0011962116,0.0011962116,0.8694026855,0.0000100000,0.0251188643,1399.9680000000
124.4680000000,0.0436496089,-0.0000100000,0.0009760079,0.0009760079,0.8491886010,0.0000100000,0.0251188643,1493.5200000000
132.2440000000,0.0344460227,-0.0000100000,0.0007967560,0.0007967560,0.7981731418,0.0000100000,0.0251188643,1586.8320000000
140.0520000000,0.0432135609,-0.0000100000,0.0006499501,0.0006499501,0.7423624507,0.0000100000,0.0251188643,1680.4800000000
147.8520000000,0.0713497609,-0.0000100000,0.0005301938,0.0005301938,0.6702090880,0.0000100000,0.0251188643,1774.1280000000
155.6560000000,0.0914200075,-0.0000100000,0.0004325032,0.0004325032,0.5994906088,0.0000100000,0.0251188643,1867.7760000000
163.4680000000,0.0893792072,-0.0000100000,0.0003527389,0.0003527389,0.5433087851,0.0000100000,0.0251188643,1961.5200000000
171.2920000000,0.1147394604,-0.0000100000,0.0002875950,0.0002875950,0.5211186528,0.0000100000,0.0251188643,2055.4080000000
179.1280000000,0.1286323131,-0.0000100000,0.0002344085,0.0002344085,0.4206087098,0.0000100000,0.0251188643,2149.4400000000
187.0080000000,0.1923050686,-0.0000100000,0.0001908388,0.0001908388,0.2712756342,0.0000100000,0.0251188643,2244.0000000000
195.0880000000,0.5269963306,-0.0000100000,0.0001545909,0.0001545909,0.0461239090,0.0000100000,0.0251188643,2340.8640000000
203.2640000000,0.6530785964,-0.0000100000,0.0001248625,0.0001248625,0.0166615762,0.0000100000,0.0251188643,2439.0720000000
211.4760000000,0.6911465893,-0.0000100000,0.0001007773,0.0001007773,0.0114111374,0.0000100000,0.0251188643,2537.6160000000
219.7440000000,0.7518292072,-0.0000100000,0.0000812192,0.0000812192,0.0045825543,0.0000100000,0.0251188643,2636.8320000000
228.0600000000,0.7902284134,-0.0000100000,0.0000653748,0.0000653748,0.0021595444,0.0000100000,0.0251188643,2736.6240000000
236.4040000000,0.8113794176,-0.0000100000,0.0000525830,0.0000525830,0.0004503532,0.0000100000,0.0251188643,2836.7520000000
244.7640000000,0.8301570681,-0.0000100000,0.0000422765,0.0000422765,0.0003567641,0.0000100000,0.0251188643,2937.0720000000
253.1440000000,0.8452280405,-0.0000100000,0.0000339723,0.0000339723,0.0001008700,0.0000100000,0.0251188643,3037.6320000000
261.5120000000,0.8506988564,-0.0000100000,0.0000273079,0.0000273079,0.0000281385,0.0000100000,0.0251188643,3138.0480000000
269.9120000000,0.8520716329,-0.0000100000,0.0000219325,0.0000219325,0.0000067346,0.0000100000,0.0251188643,3238.8480000000
278.3720000000,0.8526605894,-0.0000100000,0.0000175877,0.0000175877,0.0000006363,0.0000100000,0.0251188643,3340.3680000000
286.9240000000,0.8526605894,-0.0000100000,0.0000140697,0.0000140697,0.0000000832,0.0000100000,0.0251188643,3442.9920000000
295.5800000000,0.8526605894,-0.0000100000,0.0000112249,0.0000112249,0.0000000076,0.0000100000,0.0251188643,3546.8640000000
304.3960000000,0.8526605894,-0.0000100000,0.0000089180,0.0000089180,0.0000000001,0.0000100000,0.0251188643,3652.6560000000
