time,score,avgEnergyInc,T,realTemp,pbad,lower,higher,timer
0.0080000000,0.1295805597,-0.0000100000,0.0251188643,0.0251188643,-nan,0.0000100000,0.0251188643,0.0000000000
7.8040000000,0.0212094654,-0.0000100000,0.0226893820,0.0226893820,0.9934677595,0.0000100000,0.0251188643,46.7760000000
15.6080000000,0.0206131387,-0.0000100000,0.0204927386,0.0204927386,0.9929674331,0.0000100000,0.0251188643,93.6000000000
23.4160000000,0.0251026393,-0.0000100000,0.0185087604,0.0185087604,0.9921679948,0.0000100000,0.0251188643,140.4240000000
31.2400000000,0.0260052832,-0.0000100000,0.0167116244,0.0167116244,0.9907470124,0.0000100000,0.0251188643,187.3920000000
39.0200000000,0.0216870287,-0.0000100000,0.0150984373,0.0150984373,0.9900794286,0.0000100000,0.0251188643,234.0720000000
46.8040000000,0.0251026393,-0.0000100000,0.0136402606,0.0136402606,0.9884096174,0.0000100000,0.0251188643,280.7760000000
54.6120000000,0.0209708511,-0.0000100000,0.0123190533,0.0123190533,0.9877381533,0.0000100000,0.0251188643,327.6240000000
62.4080000000,0.0237216658,-0.0000100000,0.0111275614,0.0111275614,0.9867511163,0.0000100000,0.0251188643,374.4000000000
70.2040000000,0.0237216658,-0.0000100000,0.0100513100,0.0100513100,0.9849135834,0.0000100000,0.0251188643,421.1760000000
78.0000000000,0.0279362465,-0.0000100000,0.0090791530,0.0090791530,0.9824981533,0.0000100000,0.0251188643,467.9520000000
85.8080000000,0.0255236754,-0.0000100000,0.0081997385,0.0081997385,0.9815309586,0.0000100000,0.0251188643,514.8000000000
93.5800000000,0.0264873436,-0.0000100000,0.0074089842,0.0074089842,0.9806298521,0.0000100000,0.0251188643,561.4320000000
101.3640000000,0.0264873436,-0.0000100000,0.0066934394,0.0066934394,0.9779685779,0.0000100000,0.0251188643,608.1360000000
109.1760000000,0.0307247744,-0.0000100000,0.0060451071,0.0060451071,0.9737727846,0.0000100000,0.0251188643,654.9840000000
116.9800000000,0.0280571731,-0.0000100000,0.0054595729,0.0054595729,0.9722282090,0.0000100000,0.0251188643,701.8320000000
124.7840000000,0.0264873436,-0.0000100000,0.0049310113,0.0049310113,0.9670699503,0.0000100000,0.0251188643,748.6560000000
132.5800000000,0.0254635062,-0.0000100000,0.0044540867,0.0044540867,0.9671647410,0.0000100000,0.0251188643,795.4320000000
140.3880000000,0.0260655160,-0.0000100000,0.0040226601,0.0040226601,0.9625810358,0.0000100000,0.0251188643,842.2800000000
148.1680000000,0.0270905565,-0.0000100000,0.0036343493,0.0036343493,0.9567996338,0.0000100000,0.0251188643,888.9600000000
155.9520000000,0.0260655160,-0.0000100000,0.0032833512,0.0032833512,0.9550173272,0.0000100000,0.0251188643,935.6640000000
163.7480000000,0.0286016949,-0.0000100000,0.0029657873,0.0029657873,0.9416408181,0.0000100000,0.0251188643,982.4400000000
171.5480000000,0.0223444080,-0.0000100000,0.0026787982,0.0026787982,0.9415669287,0.0000100000,0.0251188643,1029.2400000000
179.3760000000,0.0212094654,-0.0000100000,0.0024186963,0.0024186963,0.9304877087,0.0000100000,0.0251188643,1076.2080000000
187.2000000000,0.0295711593,-0.0000100000,0.0021839633,0.0021839633,0.9278098883,0.0000100000,0.0251188643,1123.1520000000
195.0000000000,0.0330397778,-0.0000100000,0.0019726286,0.0019726286,0.9144604036,0.0000100000,0.0251188643,1169.9520000000
202.7880000000,0.0352425517,-0.0000100000,0.0017820231,0.0017820231,0.9110220425,0.0000100000,0.0251188643,1216.6800000000
210.5960000000,0.0327345781,-0.0000100000,0.0016094148,0.0016094148,0.8933998243,0.0000100000,0.0251188643,1263.5280000000
218.3920000000,0.0335284726,-0.0000100000,0.0014537531,0.0014537531,0.8903613115,0.0000100000,0.0251188643,1310.3040000000
226.1960000000,0.0393054647,-0.0000100000,0.0013130099,0.0013130099,0.8687790536,0.0000100000,0.0251188643,1357.1280000000
234.0040000000,0.0475905059,-0.0000100000,0.0011858306,0.0011858306,0.8502454630,0.0000100000,0.0251188643,1403.9760000000
241.8080000000,0.0350586284,-0.0000100000,0.0010710260,0.0010710260,0.8381162720,0.0000100000,0.0251188643,1450.8000000000
249.6160000000,0.0366548043,-0.0000100000,0.0009673360,0.0009673360,0.8111675007,0.0000100000,0.0251188643,1497.6240000000
257.4120000000,0.0521309896,-0.0000100000,0.0008737302,0.0008737302,0.7845125476,0.0000100000,0.0251188643,1544.4240000000
265.2240000000,0.0482816530,-0.0000100000,0.0007890587,0.0007890587,0.7765359567,0.0000100000,0.0251188643,1591.2960000000
273.0280000000,0.0669678286,-0.0000100000,0.0007126670,0.0007126670,0.7276054527,0.0000100000,0.0251188643,1638.1200000000
280.8400000000,0.0782233189,-0.0000100000,0.0006436039,0.0006436039,0.7072066336,0.0000100000,0.0251188643,1684.9920000000
288.6640000000,0.0634621235,-0.0000100000,0.0005811425,0.0005811425,0.6765735916,0.0000100000,0.0251188643,1731.9360000000
296.5000000000,0.0893792072,-0.0000100000,0.0005246609,0.0005246609,0.6330924018,0.0000100000,0.0251188643,1778.9520000000
304.4200000000,0.0863998011,-0.0000100000,0.0004731498,0.0004731498,0.5953176058,0.0000100000,0.0251188643,1826.4720000000
312.2360000000,0.0947012401,-0.0000100000,0.0004272755,0.0004272755,0.6015283181,0.0000100000,0.0251188643,1873.3680000000
320.0640000000,0.0964180415,-0.0000100000,0.0003857885,0.0003857885,0.5717480354,0.0000100000,0.0251188643,1920.3360000000
327.8920000000,0.1012538592,-0.0000100000,0.0003483298,0.0003483298,0.5388599844,0.0000100000,0.0251188643,1967.3040000000
335.7280000000,0.1103487707,-0.0000100000,0.0003145082,0.0003145082,0.4855679829,0.0000100000,0.0251188643,2014.2720000000
343.6040000000,0.1284137130,-0.0000100000,0.0002837632,0.0002837632,0.4627085711,0.0000100000,0.0251188643,2061.5760000000
351.5040000000,0.1508527030,-0.0000100000,0.0002559702,0.0002559702,0.4009759226,0.0000100000,0.0251188643,2108.9760000000
359.3640000000,0.1612517441,-0.0000100000,0.0002310199,0.0002310199,0.3218540132,0.0000100000,0.0251188643,2156.1360000000
367.2480000000,0.1958128079,-0.0000100000,0.0002084472,0.0002084472,0.2813620539,0.0000100000,0.0251188643,2203.4160000000
375.2280000000,0.4373355263,-0.0000100000,0.0001878250,0.0001878250,0.0762191015,0.0000100000,0.0251188643,2251.3200000000
383.3280000000,0.5478214665,-0.0000100000,0.0001689958,0.0001689958,0.0246168996,0.0000100000,0.0251188643,2299.8960000000
391.5120000000,0.6031920748,-0.0000100000,0.0001518719,0.0001518719,0.0190768693,0.0000100000,0.0251188643,2349.0240000000
399.6880000000,0.6411267606,-0.0000100000,0.0001365044,0.0001365044,0.0155811868,0.0000100000,0.0251188643,2398.0800000000
407.8840000000,0.6637791528,-0.0000100000,0.0001226599,0.0001226599,0.0099782819,0.0000100000,0.0251188643,2447.2560000000
416.1080000000,0.6987073574,-0.0000100000,0.0001101793,0.0001101793,0.0090072828,0.0000100000,0.0251188643,2496.6000000000
424.3480000000,0.7231588287,-0.0000100000,0.0000989479,0.0000989479,0.0060286381,0.0000100000,0.0251188643,2546.0400000000
432.6160000000,0.7368577959,-0.0000100000,0.0000888290,0.0000888290,0.0035671416,0.0000100000,0.0251188643,2595.6480000000
440.9120000000,0.7701033016,-0.0000100000,0.0000797157,0.0000797157,0.0018277647,0.0000100000,0.0251188643,2645.4240000000
449.2040000000,0.7867511756,-0.0000100000,0.0000715412,0.0000715412,0.0016888785,0.0000100000,0.0251188643,2695.1760000000
457.5160000000,0.7970388649,-0.0000100000,0.0000641881,0.0000641881,0.0011899343,0.0000100000,0.0251188643,2745.0480000000
465.8440000000,0.8087550450,-0.0000100000,0.0000575788,0.0000575788,0.0013703937,0.0000100000,0.0251188643,2795.0160000000
474.1760000000,0.8196772514,-0.0000100000,0.0000516473,0.0000516473,0.0004016337,0.0000100000,0.0251188643,2845.0080000000
482.5240000000,0.8280514591,-0.0000100000,0.0000463172,0.0000463172,0.0004543457,0.0000100000,0.0251188643,2895.0960000000
490.8720000000,0.8355387524,-0.0000100000,0.0000415372,0.0000415372,0.0002374524,0.0000100000,0.0251188643,2945.1840000000
499.2480000000,0.8407582938,-0.0000100000,0.0000372369,0.0000372369,0.0001791304,0.0000100000,0.0251188643,2995.4400000000
507.6200000000,0.8419222257,-0.0000100000,0.0000333853,0.0000333853,0.0000755735,0.0000100000,0.0251188643,3045.6480000000
515.9840000000,0.8471781864,-0.0000100000,0.0000299320,0.0000299320,0.0000345581,0.0000100000,0.0251188643,3095.8560000000
524.3480000000,0.8473734278,-0.0000100000,0.0000268388,0.0000268388,0.0000146365,0.0000100000,0.0251188643,3146.0160000000
532.7480000000,0.8489368454,-0.0000100000,0.0000240514,0.0000240514,0.0000047583,0.0000100000,0.0251188643,3196.4400000000
541.2040000000,0.8497195470,-0.0000100000,0.0000215389,0.0000215389,0.0000037796,0.0000100000,0.0251188643,3247.1760000000
549.6560000000,0.8499153260,-0.0000100000,0.0000192898,0.0000192898,0.0000008959,0.0000100000,0.0251188643,3297.8880000000
558.1440000000,0.8499153260,-0.0000100000,0.0000172675,0.0000172675,0.0000003486,0.0000100000,0.0251188643,3348.8160000000
566.7040000000,0.8499153260,-0.0000100000,0.0000154435,0.0000154435,0.0000001179,0.0000100000,0.0251188643,3400.1520000000
575.2640000000,0.8499153260,-0.0000100000,0.0000138107,0.0000138107,0.0000000185,0.0000100000,0.0251188643,3451.5360000000
583.8880000000,0.8499153260,-0.0000100000,0.0000123415,0.0000123415,0.0000000055,0.0000100000,0.0251188643,3503.2560000000
592.6280000000,0.8499153260,-0.0000100000,0.0000110108,0.0000110108,0.0000000004,0.0000100000,0.0251188643,3555.7200000000
601.4440000000,0.8499153260,-0.0000100000,0.0000098144,0.0000098144,0.0000000002,0.0000100000,0.0251188643,3608.6160000000
