time,score,avgEnergyInc,T,realTemp,pbad,lower,higher,timer
0.0120000000,0.1237832067,-0.0000100000,0.0211348904,0.0211348904,-nan,0.0000105925,0.0211348904,0.0000000000
7.8000000000,0.0301669545,-0.0000100000,0.0191508476,0.0191508476,0.9914490596,0.0000105925,0.0211348904,46.7040000000
15.5680000000,0.0292781133,-0.0000100000,0.0173556946,0.0173556946,0.9902441417,0.0000105925,0.0211348904,93.3360000000
23.3360000000,0.0231574132,-0.0000100000,0.0157288148,0.0157288148,0.9899511597,0.0000105925,0.0211348904,139.9680000000
31.1080000000,0.0291597170,-0.0000100000,0.0142544347,0.0142544347,0.9889517210,0.0000105925,0.0211348904,186.6000000000
38.8880000000,0.0302855827,-0.0000100000,0.0129169506,0.0129169506,0.9885758371,0.0000105925,0.0211348904,233.2800000000
46.6720000000,0.0210556348,-0.0000100000,0.0117043689,0.0117043689,0.9855968908,0.0000105925,0.0211348904,279.9840000000
54.4680000000,0.0291597170,-0.0000100000,0.0106045440,0.0106045440,0.9843643723,0.0000105925,0.0211348904,326.7360000000
62.2520000000,0.0278001149,-0.0000100000,0.0096085532,0.0096085532,0.9833479931,0.0000105925,0.0211348904,373.4640000000
70.0440000000,0.0349334876,-0.0000100000,0.0087056660,0.0087056660,0.9830448039,0.0000105925,0.0211348904,420.2160000000
77.8280000000,0.0283317051,-0.0000100000,0.0078884195,0.0078884195,0.9799986970,0.0000105925,0.0211348904,466.9200000000
85.6160000000,0.0273280514,-0.0000100000,0.0071475302,0.0071475302,0.9787126174,0.0000105925,0.0211348904,513.6480000000
93.3880000000,0.0301076507,-0.0000100000,0.0064775385,0.0064775385,0.9744518281,0.0000105925,0.0211348904,560.2800000000
101.1760000000,0.0313544669,-0.0000100000,0.0058691607,0.0058691607,0.9726852225,0.0000105925,0.0211348904,607.0080000000
108.9600000000,0.0347539467,-0.0000100000,0.0053181918,0.0053181918,0.9716101085,0.0000105925,0.0211348904,653.7120000000
116.7560000000,0.0305822726,-0.0000100000,0.0048182131,0.0048182131,0.9676755218,0.0000105925,0.0211348904,700.4880000000
124.5520000000,0.0323660070,-0.0000100000,0.0043654599,0.0043654599,0.9619368246,0.0000105925,0.0211348904,747.2400000000
132.3400000000,0.0265618725,-0.0000100000,0.0039552506,0.0039552506,0.9545970824,0.0000105925,0.0211348904,793.9920000000
140.1360000000,0.0281544473,-0.0000100000,0.0035834059,0.0035834059,0.9551632776,0.0000105925,0.0211348904,840.7680000000
147.9120000000,0.0246807536,-0.0000100000,0.0032473418,0.0032473418,0.9526060580,0.0000105925,0.0211348904,887.4240000000
155.7080000000,0.0354125680,-0.0000100000,0.0029421987,0.0029421987,0.9437763932,0.0000105925,0.0211348904,934.1760000000
163.5080000000,0.0335585976,-0.0000100000,0.0026653239,0.0026653239,0.9401240342,0.0000105925,0.0211348904,981.0000000000
171.3040000000,0.0358321274,-0.0000100000,0.0024147490,0.0024147490,0.9322959132,0.0000105925,0.0211348904,1027.7760000000
179.0920000000,0.0434427663,-0.0000100000,0.0021879531,0.0021879531,0.9239130690,0.0000105925,0.0211348904,1074.5040000000
186.8960000000,0.0275640289,-0.0000100000,0.0019820564,0.0019820564,0.9162120868,0.0000105925,0.0211348904,1121.3280000000
194.6920000000,0.0350532161,-0.0000100000,0.0017957174,0.0017957174,0.9066034991,0.0000105925,0.0211348904,1168.1040000000
202.4680000000,0.0364921223,-0.0000100000,0.0016273089,0.0016273089,0.8941084050,0.0000105925,0.0211348904,1214.7600000000
210.2560000000,0.0434427663,-0.0000100000,0.0014744702,0.0014744702,0.8822575928,0.0000105925,0.0211348904,1261.4880000000
218.0440000000,0.0394423468,-0.0000100000,0.0013359863,0.0013359863,0.8782938710,0.0000105925,0.0211348904,1308.2160000000
225.8400000000,0.0441734259,-0.0000100000,0.0012103863,0.0012103863,0.8426996903,0.0000105925,0.0211348904,1354.9920000000
233.6280000000,0.0416205833,-0.0000100000,0.0010967054,0.0010967054,0.8448167888,0.0000105925,0.0211348904,1401.7200000000
241.4320000000,0.0506106153,-0.0000100000,0.0009935506,0.0009935506,0.8127246160,0.0000105925,0.0211348904,1448.5200000000
249.2440000000,0.0517221112,-0.0000100000,0.0009000072,0.0009000072,0.7993003852,0.0000105925,0.0211348904,1495.3680000000
257.0480000000,0.0778868743,-0.0000100000,0.0008152297,0.0008152297,0.7710959483,0.0000105925,0.0211348904,1542.2400000000
264.8360000000,0.0622736717,-0.0000100000,0.0007386624,0.0007386624,0.7405274201,0.0000105925,0.0211348904,1588.9680000000
272.6360000000,0.0600710900,-0.0000100000,0.0006691847,0.0006691847,0.7188833802,0.0000105925,0.0211348904,1635.7680000000
280.4480000000,0.0725888629,-0.0000100000,0.0006061498,0.0006061498,0.6941427696,0.0000105925,0.0211348904,1682.6400000000
288.2480000000,0.0799686161,-0.0000100000,0.0005491361,0.0005491361,0.6597448860,0.0000105925,0.0211348904,1729.4400000000
296.0640000000,0.0959759907,-0.0000100000,0.0004973842,0.0004973842,0.6250140511,0.0000105925,0.0211348904,1776.3360000000
303.8800000000,0.0975894007,-0.0000100000,0.0004505095,0.0004505095,0.6153150473,0.0000105925,0.0211348904,1823.2320000000
311.6960000000,0.0991400491,-0.0000100000,0.0004080525,0.0004080525,0.5781632019,0.0000105925,0.0211348904,1870.1280000000
319.5200000000,0.0996128557,-0.0000100000,0.0003695592,0.0003695592,0.5683584119,0.0000105925,0.0211348904,1917.0720000000
327.3440000000,0.1115666542,-0.0000100000,0.0003346971,0.0003346971,0.5695414568,0.0000105925,0.0211348904,1964.0160000000
335.1840000000,0.1183051059,-0.0000100000,0.0003030624,0.0003030624,0.5289229968,0.0000105925,0.0211348904,2011.0560000000
343.0240000000,0.1310283800,-0.0000100000,0.0002744176,0.0002744176,0.4491029405,0.0000105925,0.0211348904,2058.0960000000
350.8840000000,0.1566156034,-0.0000100000,0.0002484174,0.0002484174,0.3976144049,0.0000105925,0.0211348904,2105.2560000000
358.7400000000,0.1667210015,-0.0000100000,0.0002248920,0.0002248920,0.3533997706,0.0000105925,0.0211348904,2152.3920000000
366.6320000000,0.2020690582,-0.0000100000,0.0002035017,0.0002035017,0.2985477183,0.0000105925,0.0211348904,2199.7440000000
374.5920000000,0.2883576931,-0.0000100000,0.0001839874,0.0001839874,0.1230089734,0.0000105925,0.0211348904,2247.5040000000
382.5960000000,0.3208828523,-0.0000100000,0.0001662517,0.0001662517,0.0897683748,0.0000105925,0.0211348904,2295.5280000000
390.6560000000,0.3705575980,-0.0000100000,0.0001501191,0.0001501191,0.0569436853,0.0000105925,0.0211348904,2343.8880000000
398.7400000000,0.4312909934,-0.0000100000,0.0001355108,0.0001355108,0.0408208318,0.0000105925,0.0211348904,2392.3920000000
406.8800000000,0.5076249052,-0.0000100000,0.0001222374,0.0001222374,0.0251029896,0.0000105925,0.0211348904,2441.2320000000
415.0560000000,0.5347799983,-0.0000100000,0.0001102138,0.0001102138,0.0140321041,0.0000105925,0.0211348904,2490.2880000000
423.2440000000,0.5633409051,-0.0000100000,0.0000993578,0.0000993578,0.0092816463,0.0000105925,0.0211348904,2539.4160000000
431.4440000000,0.5874733854,-0.0000100000,0.0000895575,0.0000895575,0.0087965225,0.0000105925,0.0211348904,2588.6160000000
439.6800000000,0.5952571989,-0.0000100000,0.0000806871,0.0000806871,0.0079939629,0.0000105925,0.0211348904,2638.0320000000
447.9360000000,0.6174636175,-0.0000100000,0.0000726768,0.0000726768,0.0047287694,0.0000105925,0.0211348904,2687.5680000000
456.2200000000,0.6384946433,-0.0000100000,0.0000654419,0.0000654419,0.0025561951,0.0000105925,0.0211348904,2737.2480000000
464.4960000000,0.6605419451,-0.0000100000,0.0000589272,0.0000589272,0.0015967604,0.0000105925,0.0211348904,2786.9280000000
472.8040000000,0.6704630321,-0.0000100000,0.0000530449,0.0000530449,0.0012935114,0.0000105925,0.0211348904,2836.7520000000
481.0920000000,0.6767241379,-0.0000100000,0.0000477571,0.0000477571,0.0013453229,0.0000105925,0.0211348904,2886.5040000000
489.4280000000,0.6862042970,-0.0000100000,0.0000429746,0.0000429746,0.0009112734,0.0000105925,0.0211348904,2936.4960000000
497.7480000000,0.6924240991,-0.0000100000,0.0000386769,0.0000386769,0.0004420063,0.0000105925,0.0211348904,2986.4160000000
506.0760000000,0.6988512295,-0.0000100000,0.0000348037,0.0000348037,0.0004036429,0.0000105925,0.0211348904,3036.4080000000
514.3880000000,0.7053273611,-0.0000100000,0.0000313264,0.0000313264,0.0001318314,0.0000105925,0.0211348904,3086.2800000000
522.7280000000,0.7097267342,-0.0000100000,0.0000281864,0.0000281864,0.0000437925,0.0000105925,0.0211348904,3136.3200000000
531.0640000000,0.7115255858,-0.0000100000,0.0000253625,0.0000253625,0.0000300724,0.0000105925,0.0211348904,3186.3360000000
539.4120000000,0.7138205153,-0.0000100000,0.0000228180,0.0000228180,0.0000123813,0.0000105925,0.0211348904,3236.4240000000
547.7640000000,0.7146416251,-0.0000100000,0.0000205278,0.0000205278,0.0000059645,0.0000105925,0.0211348904,3286.5360000000
556.1400000000,0.7149702894,-0.0000100000,0.0000184618,0.0000184618,0.0000016570,0.0000105925,0.0211348904,3336.7920000000
564.5400000000,0.7149702894,-0.0000100000,0.0000165987,0.0000165987,0.0000012160,0.0000105925,0.0211348904,3387.1920000000
573.0560000000,0.7151346688,-0.0000100000,0.0000149017,0.0000149017,0.0000001488,0.0000105925,0.0211348904,3438.2880000000
581.5080000000,0.7151346688,-0.0000100000,0.0000133891,0.0000133891,0.0000001444,0.0000105925,0.0211348904,3489.0000000000
590.1840000000,0.7151346688,-0.0000100000,0.0000119959,0.0000119959,0.0000000369,0.0000105925,0.0211348904,3541.0560000000
598.7160000000,0.7151346688,-0.0000100000,0.0000107678,0.0000107678,0.0000000100,0.0000105925,0.0211348904,3592.2240000000
607.3040000000,0.7151346688,-0.0000100000,0.0000096577,0.0000096577,0.0000000012,0.0000105925,0.0211348904,3643.7760000000
