time,score,avgEnergyInc,T,realTemp,pbad,lower,higher,timer
0.0080000000,0.1237832067,-0.0000100000,0.0211348904,0.0211348904,-nan,0.0000084140,0.0211348904,0.0000000000
8.1680000000,0.0228649823,-0.0000100000,0.0148206301,0.0148206301,0.9920819258,0.0000084140,0.0211348904,163.2000000000
16.2760000000,0.0294557588,-0.0000100000,0.0104163498,0.0104163498,0.9875889078,0.0000084140,0.0211348904,325.3600000000
24.3880000000,0.0293965368,-0.0000100000,0.0073196260,0.0073196260,0.9831166579,0.0000084140,0.0211348904,487.6000000000
32.4840000000,0.0291597170,-0.0000100000,0.0051462264,0.0051462264,0.9767443741,0.0000084140,0.0211348904,649.6000000000
40.5920000000,0.0286272706,-0.0000100000,0.0036169106,0.0036169106,0.9643303996,0.0000084140,0.0211348904,811.7600000000
48.6160000000,0.0305229210,-0.0000100000,0.0025513693,0.0025513693,0.9488226027,0.0000084140,0.0211348904,972.2400000000
56.6480000000,0.0395027303,-0.0000100000,0.0017991102,0.0017991102,0.9271915141,0.0000084140,0.0211348904,1132.8800000000
64.6840000000,0.0390801928,-0.0000100000,0.0012684305,0.0012684305,0.8919692586,0.0000084140,0.0211348904,1293.6000000000
72.7240000000,0.0467388125,-0.0000100000,0.0008941286,0.0008941286,0.8524230072,0.0000084140,0.0211348904,1454.4000000000
80.7840000000,0.0621475634,-0.0000100000,0.0006297317,0.0006297317,0.7781815797,0.0000084140,0.0211348904,1615.6000000000
88.8480000000,0.0774325626,-0.0000100000,0.0004434407,0.0004434407,0.6514994849,0.0000084140,0.0211348904,1776.8800000000
96.9120000000,0.1047724887,-0.0000100000,0.0003122594,0.0003122594,0.6000710778,0.0000084140,0.0211348904,1938.1600000000
105.0160000000,0.1177462677,-0.0000100000,0.0002195028,0.0002195028,0.4884722123,0.0000084140,0.0211348904,2100.2400000000
113.2120000000,0.2368839428,-0.0000100000,0.0001536833,0.0001536833,0.1833328760,0.0000084140,0.0211348904,2264.1600000000
121.6160000000,0.5547832131,-0.0000100000,0.0001066312,0.0001066312,0.0224257225,0.0000084140,0.0211348904,2432.2400000000
130.1440000000,0.6480014736,-0.0000100000,0.0000735868,0.0000735868,0.0069657236,0.0000084140,0.0211348904,2602.8000000000
138.7280000000,0.7154635222,-0.0000100000,0.0000506591,0.0000506591,0.0023332929,0.0000084140,0.0211348904,2774.4800000000
147.3800000000,0.7537979026,-0.0000100000,0.0000347721,0.0000347721,0.0005197624,0.0000084140,0.0211348904,2947.5200000000
156.0320000000,0.7709817894,-0.0000100000,0.0000238674,0.0000238674,0.0000959870,0.0000084140,0.0211348904,3120.5600000000
164.7280000000,0.7785508399,-0.0000100000,0.0000163511,0.0000163511,0.0000023901,0.0000084140,0.0211348904,3294.4800000000
173.5360000000,0.7785508399,-0.0000100000,0.0000111474,0.0000111474,0.0000000978,0.0000084140,0.0211348904,3470.6400000000
182.5080000000,0.7787276342,-0.0000100000,0.0000075457,0.0000075457,0.0000000014,0.0000084140,0.0211348904,3650.0800000000
