time,score,avgEnergyInc,T,realTemp,pbad,lower,higher,timer
0.0360000000,0.0047041795,-0.0000100000,-nan,-nan,-nan,0.0000015849,0.0039810717,-nan
7.3840000000,0.5687827856,-0.0000100000,0.0000000000,0.0000000000,0.0000000000,0.0000015849,0.0039810717,inf
