time,score,avgEnergyInc,T,realTemp,pbad,lower,higher,timer
0.0120000000,0.1267996302,-0.0000100000,-nan,-nan,-nan,0.0000100000,0.0251188643,-nan
8.2760000000,0.6697983950,-0.0000100000,0.0000000000,0.0000000000,0.0000000000,0.0000100000,0.0251188643,inf
