lower_temperature 3.98107e-05
upper_temperature 0.000630957
lower_exp -4.4
upper_exp -3.2
line_1_height 0.331012
line_3_height 0.00878304
starting_P(Bad) 0.848845
final_temperature_exp -2
final_temperature 0.01
final_P(Bad) 0.991118
