lower_temperature 1.99526e-05
upper_temperature 0.000630957
lower_exp -4.7
upper_exp -3.2
line_1_height 0.306886
line_3_height 0.00449983
starting_P(Bad) 0.860968
final_temperature_exp -2.4
final_temperature 0.00398107
final_P(Bad) 0.993777
